# device: Cypress APA Trackpad (cyapa)
# bit: 0B 00 00 00 00 00 00 00
# key: 00 00 00 00 00 00 00 00 00 00 00 00 00 00 00 00 00 00 00 00 00 00 00 00 00 00 00 00 00 00 00 00 00 00 01 00 00 00 00 00 20 E5 00 00 00 00 00 00 00 00 00 00 00 00 00 00 00 00 00 00 00 00 00 00 00 00 00 00 00 00 00 00 00 00 00 00 00 00 00 00 00 00 00 00 00 00 00 00 00 00 00 00 00 00 00 00
# rel: 00 00 00 00 00 00 00 00
# abs: 03 00 00 01 00 80 60 06
# led: 00 00 00 00 00 00 00 00
# prp: 05 00 00 00 00 00 00 00
# absinfo: 0 0 990 0 0 10
# absinfo: 1 0 650 0 0 10
# absinfo: 24 0 255 0 0 0
# absinfo: 47 0 14 0 0 0
# absinfo: 53 0 990 0 0 10
# absinfo: 54 0 650 0 0 10
# absinfo: 57 0 65535 0 0 0
# absinfo: 58 0 255 0 0 0
E: 3347.111990 0003 002f 0
E: 3347.111990 0003 0030 0
E: 3347.111990 0003 0031 0
E: 3347.111990 0003 0032 0
E: 3347.111990 0003 0033 0
E: 3347.111990 0003 0034 0
E: 3347.111990 0003 0035 536
E: 3347.111990 0003 0036 290
E: 3347.111990 0003 0037 0
E: 3347.111990 0003 0038 0
E: 3347.111990 0003 0039 915
E: 3347.111990 0003 003a 35
E: 3347.111990 0003 003b 0
E: 3347.111990 0003 002f 1
E: 3347.111990 0003 0039 -1
E: 3347.111990 0003 002f 2
E: 3347.111990 0003 0039 -1
E: 3347.111990 0003 002f 3
E: 3347.111990 0003 0039 -1
E: 3347.111990 0003 002f 4
E: 3347.111990 0003 0039 -1
E: 3347.111990 0003 002f 5
E: 3347.111990 0003 0039 -1
E: 3347.111990 0003 002f 6
E: 3347.111990 0003 0039 -1
E: 3347.111990 0003 002f 7
E: 3347.111990 0003 0039 -1
E: 3347.111990 0003 002f 8
E: 3347.111990 0003 0039 -1
E: 3347.111990 0003 002f 9
E: 3347.111990 0003 0039 -1
E: 3347.111990 0003 002f 10
E: 3347.111990 0003 0039 -1
E: 3347.111990 0003 002f 11
E: 3347.111990 0003 0039 -1
E: 3347.111990 0003 002f 12
E: 3347.111990 0003 0039 -1
E: 3347.111990 0003 002f 13
E: 3347.111990 0003 0039 -1
E: 3347.111990 0003 002f 14
E: 3347.111990 0003 0039 -1
E: 3347.111990 0003 002f 0
E: 3347.111990 0001 0145 1
E: 3347.111990 0001 014a 1
E: 3347.111990 0000 0000 0
E: 3347.125664 0003 0035 507
E: 3347.125664 0003 0036 295
E: 3347.125664 0003 003a 45
E: 3347.125664 0003 002f 1
E: 3347.125664 0003 0039 916
E: 3347.125664 0003 0035 666
E: 3347.125664 0003 0036 241
E: 3347.125664 0003 003a 45
E: 3347.125664 0001 0145 0
E: 3347.125664 0001 014d 1
E: 3347.125664 0003 0000 507
E: 3347.125664 0003 0001 295
E: 3347.125664 0003 0018 45
E: 3347.125664 0000 0000 0
E: 3347.138983 0003 002f 0
E: 3347.138983 0003 0035 506
E: 3347.138983 0003 0036 292
E: 3347.138983 0003 002f 1
E: 3347.138983 0003 0035 665
E: 3347.138983 0003 0036 238
E: 3347.138983 0003 003a 46
E: 3347.138983 0003 0000 506
E: 3347.138983 0003 0001 292
E: 3347.138983 0000 0000 0
E: 3347.152649 0003 002f 0
E: 3347.152649 0003 0035 505
E: 3347.152649 0003 002f 1
E: 3347.152649 0003 0036 239
E: 3347.152649 0003 003a 45
E: 3347.152649 0003 0000 505
E: 3347.152649 0000 0000 0
E: 3347.165801 0003 002f 0
E: 3347.165801 0003 0036 294
E: 3347.165801 0003 003a 36
E: 3347.165801 0003 002f 1
E: 3347.165801 0003 0035 663
E: 3347.165801 0003 0036 240
E: 3347.165801 0003 003a 40
E: 3347.165801 0003 0001 294
E: 3347.165801 0003 0018 36
E: 3347.165801 0000 0000 0
E: 3347.179491 0003 002f 0
E: 3347.179491 0003 0035 510
E: 3347.179491 0003 0036 293
E: 3347.179491 0003 003a 14
E: 3347.179491 0003 002f 1
E: 3347.179491 0003 0035 658
E: 3347.179491 0003 0036 246
E: 3347.179491 0003 003a 28
E: 3347.179491 0003 0000 510
E: 3347.179491 0003 0001 293
E: 3347.179491 0003 0018 14
E: 3347.179491 0000 0000 0
E: 3347.190197 0003 0035 613
E: 3347.190197 0003 0036 269
E: 3347.190197 0003 003a 4
E: 3347.190197 0003 002f 0
E: 3347.190197 0003 0039 -1
E: 3347.190197 0001 0145 1
E: 3347.190197 0001 014d 0
E: 3347.190197 0003 0000 613
E: 3347.190197 0003 0001 269
E: 3347.190197 0003 0018 4
E: 3347.190197 0000 0000 0
E: 3347.200348 0003 002f 1
E: 3347.200348 0003 0039 -1
E: 3347.200348 0001 014a 0
E: 3347.200348 0001 0145 0
E: 3347.200348 0003 0018 0
E: 3347.200348 0000 0000 0
E: 3347.200848 0003 002f 0
E: 3347.200848 0003 0039 -1
E: 3347.200848 0003 002f 1
E: 3347.200848 0003 0039 -1
E: 3347.200848 0003 002f 2
E: 3347.200848 0003 0039 -1
E: 3347.200848 0003 002f 3
E: 3347.200848 0003 0039 -1
E: 3347.200848 0003 002f 4
E: 3347.200848 0003 0039 -1
E: 3347.200848 0003 002f 5
E: 3347.200848 0003 0039 -1
E: 3347.200848 0003 002f 6
E: 3347.200848 0003 0039 -1
E: 3347.200848 0003 002f 7
E: 3347.200848 0003 0039 -1
E: 3347.200848 0003 002f 8
E: 3347.200848 0003 0039 -1
E: 3347.200848 0003 002f 9
E: 3347.200848 0003 0039 -1
E: 3347.200848 0003 002f 10
E: 3347.200848 0003 0039 -1
E: 3347.200848 0003 002f 11
E: 3347.200848 0003 0039 -1
E: 3347.200848 0003 002f 12
E: 3347.200848 0003 0039 -1
E: 3347.200848 0003 002f 13
E: 3347.200848 0003 0039 -1
E: 3347.200848 0003 002f 14
E: 3347.200848 0003 0039 -1
