# device: Elan Touchpad
# bit: 0B 00 00 00 00 00 00 00
# key: 00 00 00 00 00 00 00 00 00 00 00 00 00 00 00 00 00 00 00 00 00 00 00 00 00 00 00 00 00 00 00 00 00 00 01 00 00 00 00 00 20 E5 00 00 00 00 00 00 00 00 00 00 00 00 00 00 00 00 00 00 00 00 00 00 00 00 00 00 00 00 00 00 00 00 00 00 00 00 00 00 00 00 00 00 00 00 00 00 00 00 00 00 00 00 00 00
# rel: 00 00 00 00 00 00 00 00
# abs: 03 00 00 11 00 80 63 06
# led: 00 00 00 00 00 00 00 00
# prp: 05 00 00 00 00 00 00 00
# absinfo: 0 0 2948 0 0 32
# absinfo: 1 0 1593 0 0 32
# absinfo: 24 0 255 0 0 0
# absinfo: 28 0 15 0 0 0
# absinfo: 47 0 4 0 0 0
# absinfo: 48 0 2385 0 0 0
# absinfo: 49 0 2325 0 0 0
# absinfo: 53 0 2948 0 0 32
# absinfo: 54 0 1593 0 0 32
# absinfo: 57 0 65535 0 0 0
# absinfo: 58 0 255 0 0 0
E: 532.120684 0003 002f 0
E: 532.120684 0003 0030 260
E: 532.120684 0003 0031 207
E: 532.120684 0003 0032 0
E: 532.120684 0003 0033 0
E: 532.120684 0003 0034 0
E: 532.120684 0003 0035 1048
E: 532.120684 0003 0036 165
E: 532.120684 0003 0037 0
E: 532.120684 0003 0038 0
E: 532.120684 0003 0039 11
E: 532.120684 0003 003a 63
E: 532.120684 0003 003b 0
E: 532.120684 0003 002f 1
E: 532.120684 0003 0039 -1
E: 532.120684 0003 002f 2
E: 532.120684 0003 0039 -1
E: 532.120684 0003 002f 3
E: 532.120684 0003 0039 -1
E: 532.120684 0003 002f 4
E: 532.120684 0003 0039 -1
E: 532.120684 0003 002f 0
E: 532.120684 0001 0145 1
E: 532.120684 0001 014a 1
E: 532.120684 0000 0000 0
E: 532.129132 0003 0035 1047
E: 532.129132 0003 0036 166
E: 532.129132 0003 001c 5
E: 532.129132 0003 0030 325
E: 532.129132 0003 0000 1047
E: 532.129132 0003 0001 166
E: 532.129132 0000 0000 0
E: 532.134112 0003 0035 1045
E: 532.134112 0003 0036 167
E: 532.134112 0003 0000 1045
E: 532.134112 0003 0001 167
E: 532.134112 0000 0000 0
E: 532.138993 0003 0035 1044
E: 532.138993 0003 0036 168
E: 532.138993 0003 002f 1
E: 532.138993 0003 0039 12
E: 532.138993 0003 0035 1583
E: 532.138993 0003 0036 176
E: 532.138993 0003 003a 61
E: 532.138993 0003 001c 3
E: 532.138993 0003 0030 207
E: 532.138993 0003 0031 195
E: 532.138993 0001 0145 0
E: 532.138993 0001 014d 1
E: 532.138993 0003 0000 1044
E: 532.138993 0003 0001 168
E: 532.138993 0000 0000 0
E: 532.149392 0003 002f 0
E: 532.149392 0003 0035 1043
E: 532.149392 0003 0036 169
E: 532.149392 0003 001c 5
E: 532.149392 0003 002f 1
E: 532.149392 0003 0036 177
E: 532.149392 0003 001c 4
E: 532.149392 0003 0030 260
E: 532.149392 0003 0031 207
E: 532.149392 0003 0000 1043
E: 532.149392 0003 0001 169
E: 532.149392 0000 0000 0
E: 532.158103 0003 002f 0
E: 532.158103 0003 0035 1042
E: 532.158103 0003 0036 170
E: 532.158103 0003 001c 5
E: 532.158103 0003 002f 1
E: 532.158103 0003 0036 178
E: 532.158103 0003 001c 4
E: 532.158103 0003 0000 1042
E: 532.158103 0003 0001 170
E: 532.158103 0000 0000 0
E: 532.168919 0003 002f 0
E: 532.168919 0003 0036 171
E: 532.168919 0003 003a 64
E: 532.168919 0003 001c 5
E: 532.168919 0003 002f 1
E: 532.168919 0003 0035 1584
E: 532.168919 0003 001c 4
E: 532.168919 0003 0001 171
E: 532.168919 0003 0018 64
E: 532.168919 0000 0000 0
E: 532.178443 0003 002f 0
E: 532.178443 0003 0036 173
E: 532.178443 0003 003a 65
E: 532.178443 0003 001c 5
E: 532.178443 0003 002f 1
E: 532.178443 0003 0035 1585
E: 532.178443 0003 0036 179
E: 532.178443 0003 001c 4
E: 532.178443 0003 0001 173
E: 532.178443 0003 0018 65
E: 532.178443 0000 0000 0
E: 532.188547 0003 002f 0
E: 532.188547 0003 0036 175
E: 532.188547 0003 001c 5
E: 532.188547 0003 002f 1
E: 532.188547 0003 0036 180
E: 532.188547 0003 003a 62
E: 532.188547 0003 001c 4
E: 532.188547 0003 0001 175
E: 532.188547 0000 0000 0
E: 532.198129 0003 002f 0
E: 532.198129 0003 0036 178
E: 532.198129 0003 003a 66
E: 532.198129 0003 001c 5
E: 532.198129 0003 002f 1
E: 532.198129 0003 0036 182
E: 532.198129 0003 003a 63
E: 532.198129 0003 001c 4
E: 532.198129 0003 0001 178
E: 532.198129 0003 0018 66
E: 532.198129 0000 0000 0
E: 532.207870 0003 002f 0
E: 532.207870 0003 0035 1043
E: 532.207870 0003 0036 182
E: 532.207870 0003 003a 67
E: 532.207870 0003 0030 276
E: 532.207870 0003 0031 260
E: 532.207870 0003 002f 1
E: 532.207870 0003 0035 1587
E: 532.207870 0003 0036 186
E: 532.207870 0003 001c 5
E: 532.207870 0003 0030 325
E: 532.207870 0003 0000 1043
E: 532.207870 0003 0001 182
E: 532.207870 0003 0018 67
E: 532.207870 0000 0000 0
E: 532.217705 0003 002f 0
E: 532.217705 0003 0036 189
E: 532.217705 0003 001c 4
E: 532.217705 0003 002f 1
E: 532.217705 0003 0035 1589
E: 532.217705 0003 0036 192
E: 532.217705 0003 001c 5
E: 532.217705 0003 0031 276
E: 532.217705 0003 0001 189
E: 532.217705 0000 0000 0
E: 532.227277 0003 002f 0
E: 532.227277 0003 0036 201
E: 532.227277 0003 003a 68
E: 532.227277 0003 001c 4
E: 532.227277 0003 002f 1
E: 532.227277 0003 0035 1591
E: 532.227277 0003 0036 205
E: 532.227277 0003 003a 65
E: 532.227277 0003 001c 5
E: 532.227277 0003 0001 201
E: 532.227277 0003 0018 68
E: 532.227277 0000 0000 0
E: 532.237371 0003 002f 0
E: 532.237371 0003 0035 1042
E: 532.237371 0003 0036 223
E: 532.237371 0003 003a 69
E: 532.237371 0003 001c 4
E: 532.237371 0003 002f 1
E: 532.237371 0003 0035 1592
E: 532.237371 0003 0036 235
E: 532.237371 0003 001c 5
E: 532.237371 0003 0000 1042
E: 532.237371 0003 0001 223
E: 532.237371 0003 0018 69
E: 532.237371 0000 0000 0
E: 532.247159 0003 002f 0
E: 532.247159 0003 0035 1041
E: 532.247159 0003 0036 264
E: 532.247159 0003 001c 4
E: 532.247159 0003 002f 1
E: 532.247159 0003 0035 1593
E: 532.247159 0003 0036 296
E: 532.247159 0003 001c 5
E: 532.247159 0003 0000 1041
E: 532.247159 0003 0001 264
E: 532.247159 0000 0000 0
E: 532.256415 0003 002f 0
E: 532.256415 0003 0035 1040
E: 532.256415 0003 0036 331
E: 532.256415 0003 003a 68
E: 532.256415 0003 001c 4
E: 532.256415 0003 0030 260
E: 532.256415 0003 0031 207
E: 532.256415 0003 002f 1
E: 532.256415 0003 0035 1588
E: 532.256415 0003 0036 402
E: 532.256415 0003 001c 5
E: 532.256415 0003 0000 1040
E: 532.256415 0003 0001 331
E: 532.256415 0003 0018 68
E: 532.256415 0000 0000 0
E: 532.266759 0003 002f 0
E: 532.266759 0003 0035 1037
E: 532.266759 0003 0036 418
E: 532.266759 0003 003a 67
E: 532.266759 0003 001c 4
E: 532.266759 0003 0030 276
E: 532.266759 0003 0031 260
E: 532.266759 0003 002f 1
E: 532.266759 0003 0035 1583
E: 532.266759 0003 0036 533
E: 532.266759 0003 003a 64
E: 532.266759 0003 001c 5
E: 532.266759 0003 0031 207
E: 532.266759 0003 0000 1037
E: 532.266759 0003 0001 418
E: 532.266759 0003 0018 67
E: 532.266759 0000 0000 0
E: 532.276073 0003 002f 0
E: 532.276073 0003 0035 1028
E: 532.276073 0003 0036 525
E: 532.276073 0003 003a 66
E: 532.276073 0003 0030 325
E: 532.276073 0003 0031 207
E: 532.276073 0003 002f 1
E: 532.276073 0003 0035 1578
E: 532.276073 0003 0036 665
E: 532.276073 0003 003a 63
E: 532.276073 0003 001c 4
E: 532.276073 0003 0030 260
E: 532.276073 0003 0000 1028
E: 532.276073 0003 0001 525
E: 532.276073 0003 0018 66
E: 532.276073 0000 0000 0
E: 532.285750 0003 002f 0
E: 532.285750 0003 0035 1018
E: 532.285750 0003 0036 668
E: 532.285750 0003 003a 65
E: 532.285750 0003 001c 5
E: 532.285750 0003 002f 1
E: 532.285750 0003 0035 1575
E: 532.285750 0003 0036 830
E: 532.285750 0003 001c 4
E: 532.285750 0003 0000 1018
E: 532.285750 0003 0001 668
E: 532.285750 0003 0018 65
E: 532.285750 0000 0000 0
E: 532.295563 0003 002f 0
E: 532.295563 0003 0035 1017
E: 532.295563 0003 0036 792
E: 532.295563 0003 0030 260
E: 532.295563 0003 002f 1
E: 532.295563 0003 0035 1577
E: 532.295563 0003 0036 962
E: 532.295563 0003 001c 5
E: 532.295563 0003 0030 325
E: 532.295563 0003 0000 1017
E: 532.295563 0003 0001 792
E: 532.295563 0000 0000 0
E: 532.305276 0003 002f 0
E: 532.305276 0003 0035 1015
E: 532.305276 0003 0036 910
E: 532.305276 0003 003a 64
E: 532.305276 0003 001c 4
E: 532.305276 0003 002f 1
E: 532.305276 0003 0035 1578
E: 532.305276 0003 0036 1082
E: 532.305276 0003 003a 61
E: 532.305276 0003 0030 260
E: 532.305276 0003 0000 1015
E: 532.305276 0003 0001 910
E: 532.305276 0003 0018 64
E: 532.305276 0000 0000 0
E: 532.315081 0003 002f 0
E: 532.315081 0003 0035 1010
E: 532.315081 0003 0036 1035
E: 532.315081 0003 003a 63
E: 532.315081 0003 002f 1
E: 532.315081 0003 0035 1577
E: 532.315081 0003 0036 1195
E: 532.315081 0003 003a 60
E: 532.315081 0003 0000 1010
E: 532.315081 0003 0001 1035
E: 532.315081 0003 0018 63
E: 532.315081 0000 0000 0
E: 532.324890 0003 002f 0
E: 532.324890 0003 0036 1160
E: 532.324890 0003 003a 62
E: 532.324890 0003 002f 1
E: 532.324890 0003 0035 1570
E: 532.324890 0003 0036 1302
E: 532.324890 0003 003a 59
E: 532.324890 0003 0001 1160
E: 532.324890 0003 0018 62
E: 532.324890 0000 0000 0
E: 532.334712 0003 002f 0
E: 532.334712 0003 0035 1011
E: 532.334712 0003 0036 1279
E: 532.334712 0003 001c 5
E: 532.334712 0003 0030 325
E: 532.334712 0003 001c 1
E: 532.334712 0003 002f 1
E: 532.334712 0003 0030 69
E: 532.334712 0003 0031 65
E: 532.334712 0003 0000 1011
E: 532.334712 0003 0001 1279
E: 532.334712 0000 0000 0
E: 532.344517 0003 002f 0
E: 532.344517 0003 0035 1012
E: 532.344517 0003 0036 1396
E: 532.344517 0003 0030 69
E: 532.344517 0003 0031 65
E: 532.344517 0003 0000 1012
E: 532.344517 0003 0001 1396
E: 532.344517 0000 0000 0
E: 532.354276 0003 0039 -1
E: 532.354276 0003 002f 1
E: 532.354276 0003 0039 -1
E: 532.354276 0001 014a 0
E: 532.354276 0001 014d 0
E: 532.354276 0003 0018 0
E: 532.354276 0000 0000 0
E: 533.042232 0003 002f 0
E: 533.042232 0003 0039 13
E: 533.042232 0003 0035 1566
E: 533.042232 0003 0036 385
E: 533.042232 0003 003a 64
E: 533.042232 0003 001c 5
E: 533.042232 0003 0030 325
E: 533.042232 0003 0031 276
E: 533.042232 0003 002f 1
E: 533.042232 0003 0039 14
E: 533.042232 0003 0035 1035
E: 533.042232 0003 0036 309
E: 533.042232 0003 003a 69
E: 533.042232 0003 001c 4
E: 533.042232 0003 0030 276
E: 533.042232 0003 0031 260
E: 533.042232 0001 014a 1
E: 533.042232 0001 014d 1
E: 533.042232 0003 0000 1566
E: 533.042232 0003 0001 385
E: 533.042232 0003 0018 64
E: 533.042232 0000 0000 0
E: 533.051627 0003 001c 5
E: 533.051627 0003 0035 1034
E: 533.051627 0003 001c 4
E: 533.051627 0000 0000 0
E: 533.060911 0003 002f 0
E: 533.060911 0003 003a 63
E: 533.060911 0003 001c 5
E: 533.060911 0003 002f 1
E: 533.060911 0003 0035 1033
E: 533.060911 0003 001c 4
E: 533.060911 0003 0018 63
E: 533.060911 0000 0000 0
E: 533.071135 0003 001c 5
E: 533.071135 0003 0035 1032
E: 533.071135 0003 001c 4
E: 533.071135 0000 0000 0
E: 533.081111 0003 001c 5
E: 533.081111 0003 002f 0
E: 533.081111 0003 0031 207
E: 533.081111 0003 002f 1
E: 533.081111 0003 0035 1031
E: 533.081111 0003 001c 4
E: 533.081111 0000 0000 0
E: 533.090867 0003 001c 5
E: 533.090867 0003 0035 1030
E: 533.090867 0003 001c 4
E: 533.090867 0000 0000 0
E: 533.101141 0003 001c 5
E: 533.101141 0003 002f 0
E: 533.101141 0003 0031 276
E: 533.101141 0003 002f 1
E: 533.101141 0003 0035 1029
E: 533.101141 0003 001c 4
E: 533.101141 0000 0000 0
E: 533.110479 0003 002f 0
E: 533.110479 0003 0035 1565
E: 533.110479 0003 001c 5
E: 533.110479 0003 002f 1
E: 533.110479 0003 0035 1028
E: 533.110479 0003 001c 4
E: 533.110479 0003 0000 1565
E: 533.110479 0000 0000 0
E: 533.120621 0003 001c 5
E: 533.120621 0003 0035 1027
E: 533.120621 0003 001c 4
E: 533.120621 0000 0000 0
E: 533.129369 0003 001c 5
E: 533.129369 0003 0035 1026
E: 533.129369 0003 001c 4
E: 533.129369 0000 0000 0
E: 533.139570 0003 001c 5
E: 533.139570 0003 0035 1025
E: 533.139570 0003 003a 68
E: 533.139570 0003 001c 4
E: 533.139570 0000 0000 0
E: 533.149524 0003 002f 0
E: 533.149524 0003 0035 1564
E: 533.149524 0003 001c 5
E: 533.149524 0003 002f 1
E: 533.149524 0003 0035 1024
E: 533.149524 0003 001c 4
E: 533.149524 0003 0000 1564
E: 533.149524 0000 0000 0
E: 533.159542 0003 002f 0
E: 533.159542 0003 0035 1563
E: 533.159542 0003 001c 5
E: 533.159542 0003 002f 1
E: 533.159542 0003 0035 1023
E: 533.159542 0003 001c 4
E: 533.159542 0003 0000 1563
E: 533.159542 0000 0000 0
E: 533.169690 0003 001c 5
E: 533.169690 0003 001c 4
E: 533.169690 0000 0000 0
E: 533.178962 0003 001c 5
E: 533.178962 0003 0035 1022
E: 533.178962 0003 001c 4
E: 533.178962 0000 0000 0
E: 533.188437 0003 001c 5
E: 533.188437 0003 001c 4
E: 533.188437 0000 0000 0
E: 533.199214 0003 002f 0
E: 533.199214 0003 0035 1562
E: 533.199214 0003 001c 5
E: 533.199214 0003 0031 207
E: 533.199214 0003 001c 4
E: 533.199214 0003 0000 1562
E: 533.199214 0000 0000 0
E: 533.208617 0003 001c 5
E: 533.208617 0003 001c 4
E: 533.208617 0000 0000 0
E: 533.217894 0003 0035 1561
E: 533.217894 0003 001c 5
E: 533.217894 0003 0031 276
E: 533.217894 0003 001c 4
E: 533.217894 0003 0000 1561
E: 533.217894 0000 0000 0
E: 533.227693 0003 001c 5
E: 533.227693 0003 001c 4
E: 533.227693 0000 0000 0
E: 533.237537 0003 001c 5
E: 533.237537 0003 002f 1
E: 533.237537 0003 0036 308
E: 533.237537 0003 001c 4
E: 533.237537 0000 0000 0
E: 533.247872 0003 001c 5
E: 533.247872 0003 001c 4
E: 533.247872 0000 0000 0
E: 533.257133 0003 001c 5
E: 533.257133 0003 0036 307
E: 533.257133 0003 001c 4
E: 533.257133 0000 0000 0
E: 533.267766 0003 001c 5
E: 533.267766 0003 001c 4
E: 533.267766 0000 0000 0
E: 533.277118 0003 001c 5
E: 533.277118 0003 001c 4
E: 533.277118 0000 0000 0
E: 533.287134 0003 001c 5
E: 533.287134 0003 0036 306
E: 533.287134 0003 001c 4
E: 533.287134 0000 0000 0
E: 533.296659 0003 001c 5
E: 533.296659 0003 001c 4
E: 533.296659 0000 0000 0
E: 533.306197 0003 001c 5
E: 533.306197 0003 002f 0
E: 533.306197 0003 0031 207
E: 533.306197 0003 001c 4
E: 533.306197 0000 0000 0
E: 533.316571 0003 001c 5
E: 533.316571 0003 0031 276
E: 533.316571 0003 001c 4
E: 533.316571 0000 0000 0
E: 533.326131 0003 001c 5
E: 533.326131 0003 001c 4
E: 533.326131 0000 0000 0
E: 533.336170 0003 001c 5
E: 533.336170 0003 001c 4
E: 533.336170 0000 0000 0
E: 533.346092 0003 001c 5
E: 533.346092 0003 001c 4
E: 533.346092 0000 0000 0
E: 533.356156 0003 001c 5
E: 533.356156 0003 001c 4
E: 533.356156 0000 0000 0
E: 533.365590 0003 001c 5
E: 533.365590 0003 001c 4
E: 533.365590 0000 0000 0
E: 533.375683 0003 001c 5
E: 533.375683 0003 001c 4
E: 533.375683 0000 0000 0
E: 533.384970 0003 001c 5
E: 533.384970 0003 001c 4
E: 533.384970 0000 0000 0
E: 533.395080 0003 001c 5
E: 533.395080 0003 001c 4
E: 533.395080 0000 0000 0
E: 533.404864 0003 0036 384
E: 533.404864 0003 001c 5
E: 533.404864 0003 0031 207
E: 533.404864 0003 001c 4
E: 533.404864 0003 0001 384
E: 533.404864 0000 0000 0
E: 533.414468 0003 001c 5
E: 533.414468 0003 0031 276
E: 533.414468 0003 001c 4
E: 533.414468 0000 0000 0
E: 533.424740 0003 001c 5
E: 533.424740 0003 001c 4
E: 533.424740 0000 0000 0
E: 533.434049 0003 001c 5
E: 533.434049 0003 001c 4
E: 533.434049 0000 0000 0
E: 533.444121 0003 001c 5
E: 533.444121 0003 001c 4
E: 533.444121 0000 0000 0
E: 533.453875 0003 001c 5
E: 533.453875 0003 001c 4
E: 533.453875 0000 0000 0
E: 533.463178 0003 001c 5
E: 533.463178 0003 001c 4
E: 533.463178 0000 0000 0
E: 533.473522 0003 001c 5
E: 533.473522 0003 0031 207
E: 533.473522 0003 001c 4
E: 533.473522 0000 0000 0
E: 533.483395 0003 001c 5
E: 533.483395 0003 0031 276
E: 533.483395 0003 001c 4
E: 533.483395 0000 0000 0
E: 533.493157 0003 001c 5
E: 533.493157 0003 001c 4
E: 533.493157 0000 0000 0
E: 533.502973 0003 001c 5
E: 533.502973 0003 001c 4
E: 533.502973 0000 0000 0
E: 533.512782 0003 001c 5
E: 533.512782 0003 001c 4
E: 533.512782 0000 0000 0
E: 533.522603 0003 001c 5
E: 533.522603 0003 002f 1
E: 533.522603 0003 0036 305
E: 533.522603 0003 001c 4
E: 533.522603 0000 0000 0
E: 533.531855 0003 001c 5
E: 533.531855 0003 001c 4
E: 533.531855 0000 0000 0
E: 533.541969 0003 001c 5
E: 533.541969 0003 001c 4
E: 533.541969 0000 0000 0
E: 533.551845 0003 001c 5
E: 533.551845 0003 001c 4
E: 533.551845 0000 0000 0
E: 533.561101 0003 001c 5
E: 533.561101 0003 001c 4
E: 533.561101 0000 0000 0
E: 533.571415 0003 001c 5
E: 533.571415 0003 001c 4
E: 533.571415 0000 0000 0
E: 533.581180 0003 001c 5
E: 533.581180 0003 001c 4
E: 533.581180 0000 0000 0
E: 533.590762 0003 001c 5
E: 533.590762 0003 001c 4
E: 533.590762 0000 0000 0
E: 533.600827 0003 001c 5
E: 533.600827 0003 001c 4
E: 533.600827 0000 0000 0
E: 533.610344 0003 001c 5
E: 533.610344 0003 001c 4
E: 533.610344 0000 0000 0
E: 533.620458 0003 001c 5
E: 533.620458 0003 001c 4
E: 533.620458 0000 0000 0
E: 533.630102 0003 001c 5
E: 533.630102 0003 001c 4
E: 533.630102 0000 0000 0
E: 533.639792 0003 001c 5
E: 533.639792 0003 001c 4
E: 533.639792 0000 0000 0
E: 533.649600 0003 001c 5
E: 533.649600 0003 001c 4
E: 533.649600 0000 0000 0
E: 533.659917 0003 001c 5
E: 533.659917 0003 001c 4
E: 533.659917 0000 0000 0
E: 533.669534 0003 001c 5
E: 533.669534 0003 001c 4
E: 533.669534 0000 0000 0
E: 533.679068 0003 001c 5
E: 533.679068 0003 001c 4
E: 533.679068 0000 0000 0
E: 533.688913 0003 001c 5
E: 533.688913 0003 001c 4
E: 533.688913 0000 0000 0
E: 533.698933 0003 001c 5
E: 533.698933 0003 001c 4
E: 533.698933 0000 0000 0
E: 533.708562 0003 001c 5
E: 533.708562 0003 001c 4
E: 533.708562 0000 0000 0
E: 533.718613 0003 001c 5
E: 533.718613 0003 001c 4
E: 533.718613 0000 0000 0
E: 533.728370 0003 001c 5
E: 533.728370 0003 001c 4
E: 533.728370 0000 0000 0
E: 533.737962 0003 001c 5
E: 533.737962 0003 001c 4
E: 533.737962 0000 0000 0
E: 533.748069 0003 001c 5
E: 533.748069 0003 001c 4
E: 533.748069 0000 0000 0
E: 533.758059 0003 001c 5
E: 533.758059 0003 001c 4
E: 533.758059 0000 0000 0
E: 533.767850 0003 001c 5
E: 533.767850 0003 001c 4
E: 533.767850 0000 0000 0
E: 533.777423 0003 001c 5
E: 533.777423 0003 001c 4
E: 533.777423 0000 0000 0
E: 533.786963 0003 001c 5
E: 533.786963 0003 001c 4
E: 533.786963 0000 0000 0
E: 533.796834 0003 001c 5
E: 533.796834 0003 001c 4
E: 533.796834 0000 0000 0
E: 533.806856 0003 001c 5
E: 533.806856 0003 001c 4
E: 533.806856 0000 0000 0
E: 533.816658 0003 001c 5
E: 533.816658 0003 001c 4
E: 533.816658 0000 0000 0
E: 533.826204 0003 001c 5
E: 533.826204 0003 001c 4
E: 533.826204 0000 0000 0
E: 533.836061 0003 001c 5
E: 533.836061 0003 001c 4
E: 533.836061 0000 0000 0
E: 533.845839 0003 001c 5
E: 533.845839 0003 001c 4
E: 533.845839 0000 0000 0
E: 533.855905 0003 001c 5
E: 533.855905 0003 001c 4
E: 533.855905 0000 0000 0
E: 533.865427 0003 001c 5
E: 533.865427 0003 001c 4
E: 533.865427 0000 0000 0
E: 533.875093 0003 001c 5
E: 533.875093 0003 001c 4
E: 533.875093 0000 0000 0
E: 533.885187 0003 001c 5
E: 533.885187 0003 001c 4
E: 533.885187 0000 0000 0
E: 533.895182 0003 001c 5
E: 533.895182 0003 001c 4
E: 533.895182 0000 0000 0
E: 533.904713 0003 001c 5
E: 533.904713 0003 001c 4
E: 533.904713 0000 0000 0
E: 533.914498 0003 001c 5
E: 533.914498 0003 001c 4
E: 533.914498 0000 0000 0
E: 533.924356 0003 001c 5
E: 533.924356 0003 001c 4
E: 533.924356 0000 0000 0
E: 533.934124 0003 001c 5
E: 533.934124 0003 001c 4
E: 533.934124 0000 0000 0
E: 533.943956 0003 001c 5
E: 533.943956 0003 001c 4
E: 533.943956 0000 0000 0
E: 533.953743 0003 001c 5
E: 533.953743 0003 001c 4
E: 533.953743 0000 0000 0
E: 533.963557 0003 001c 5
E: 533.963557 0003 001c 4
E: 533.963557 0000 0000 0
E: 533.973442 0003 001c 5
E: 533.973442 0003 001c 4
E: 533.973442 0000 0000 0
E: 533.983173 0003 001c 5
E: 533.983173 0003 001c 4
E: 533.983173 0000 0000 0
E: 533.993054 0003 001c 5
E: 533.993054 0003 001c 4
E: 533.993054 0000 0000 0
E: 534.002806 0003 001c 5
E: 534.002806 0003 001c 4
E: 534.002806 0000 0000 0
E: 534.012611 0003 002f 0
E: 534.012611 0003 0036 385
E: 534.012611 0003 001c 5
E: 534.012611 0003 001c 4
E: 534.012611 0003 0001 385
E: 534.012611 0000 0000 0
E: 534.022422 0003 001c 5
E: 534.022422 0003 001c 4
E: 534.022422 0000 0000 0
E: 534.032278 0003 001c 5
E: 534.032278 0003 001c 4
E: 534.032278 0000 0000 0
E: 534.042347 0003 0036 386
E: 534.042347 0003 001c 5
E: 534.042347 0003 002f 1
E: 534.042347 0003 0036 306
E: 534.042347 0003 003a 69
E: 534.042347 0003 001c 4
E: 534.042347 0003 0001 386
E: 534.042347 0000 0000 0
E: 534.051857 0003 002f 0
E: 534.051857 0003 0036 387
E: 534.051857 0003 001c 5
E: 534.051857 0003 002f 1
E: 534.051857 0003 0036 307
E: 534.051857 0003 001c 4
E: 534.051857 0003 0001 387
E: 534.051857 0000 0000 0
E: 534.061574 0003 002f 0
E: 534.061574 0003 0036 389
E: 534.061574 0003 001c 5
E: 534.061574 0003 002f 1
E: 534.061574 0003 0036 308
E: 534.061574 0003 001c 4
E: 534.061574 0003 0001 389
E: 534.061574 0000 0000 0
E: 534.071818 0003 002f 0
E: 534.071818 0003 0036 392
E: 534.071818 0003 003a 64
E: 534.071818 0003 001c 5
E: 534.071818 0003 002f 1
E: 534.071818 0003 0036 310
E: 534.071818 0003 001c 4
E: 534.071818 0003 0001 392
E: 534.071818 0003 0018 64
E: 534.071818 0000 0000 0
E: 534.081346 0003 002f 0
E: 534.081346 0003 0036 398
E: 534.081346 0003 003a 65
E: 534.081346 0003 001c 5
E: 534.081346 0003 002f 1
E: 534.081346 0003 0036 314
E: 534.081346 0003 001c 4
E: 534.081346 0003 0001 398
E: 534.081346 0003 0018 65
E: 534.081346 0000 0000 0
E: 534.091144 0003 002f 0
E: 534.091144 0003 0036 408
E: 534.091144 0003 001c 5
E: 534.091144 0003 002f 1
E: 534.091144 0003 0036 321
E: 534.091144 0003 001c 4
E: 534.091144 0003 0001 408
E: 534.091144 0000 0000 0
E: 534.101255 0003 002f 0
E: 534.101255 0003 0036 426
E: 534.101255 0003 001c 5
E: 534.101255 0003 0031 207
E: 534.101255 0003 002f 1
E: 534.101255 0003 0035 1021
E: 534.101255 0003 0036 334
E: 534.101255 0003 001c 4
E: 534.101255 0003 0001 426
E: 534.101255 0000 0000 0
E: 534.111533 0003 002f 0
E: 534.111533 0003 0036 454
E: 534.111533 0003 001c 5
E: 534.111533 0003 0031 276
E: 534.111533 0003 002f 1
E: 534.111533 0003 0036 355
E: 534.111533 0003 001c 4
E: 534.111533 0003 0001 454
E: 534.111533 0000 0000 0
E: 534.120999 0003 002f 0
E: 534.120999 0003 0036 502
E: 534.120999 0003 001c 5
E: 534.120999 0003 002f 1
E: 534.120999 0003 0036 394
E: 534.120999 0003 001c 4
E: 534.120999 0003 0030 260
E: 534.120999 0003 0031 207
E: 534.120999 0003 0001 502
E: 534.120999 0000 0000 0
E: 534.130372 0003 002f 0
E: 534.130372 0003 0036 573
E: 534.130372 0003 003a 64
E: 534.130372 0003 001c 5
E: 534.130372 0003 002f 1
E: 534.130372 0003 0036 455
E: 534.130372 0003 001c 4
E: 534.130372 0003 0030 276
E: 534.130372 0003 0031 260
E: 534.130372 0003 0001 573
E: 534.130372 0003 0018 64
E: 534.130372 0000 0000 0
E: 534.140107 0003 002f 0
E: 534.140107 0003 0035 1563
E: 534.140107 0003 0036 670
E: 534.140107 0003 003a 63
E: 534.140107 0003 001c 5
E: 534.140107 0003 0031 207
E: 534.140107 0003 002f 1
E: 534.140107 0003 0035 1022
E: 534.140107 0003 0036 542
E: 534.140107 0003 003a 67
E: 534.140107 0003 001c 4
E: 534.140107 0003 0000 1563
E: 534.140107 0003 0001 670
E: 534.140107 0003 0018 63
E: 534.140107 0000 0000 0
E: 534.149881 0003 002f 0
E: 534.149881 0003 0035 1564
E: 534.149881 0003 0036 815
E: 534.149881 0003 003a 62
E: 534.149881 0003 0030 260
E: 534.149881 0003 002f 1
E: 534.149881 0003 0035 1019
E: 534.149881 0003 0036 673
E: 534.149881 0003 003a 66
E: 534.149881 0003 0000 1564
E: 534.149881 0003 0001 815
E: 534.149881 0003 0018 62
E: 534.149881 0000 0000 0
E: 534.159876 0003 002f 0
E: 534.159876 0003 0035 1560
E: 534.159876 0003 0036 970
E: 534.159876 0003 003a 61
E: 534.159876 0003 001c 3
E: 534.159876 0003 0030 207
E: 534.159876 0003 0031 195
E: 534.159876 0003 002f 1
E: 534.159876 0003 0035 1010
E: 534.159876 0003 0036 819
E: 534.159876 0003 003a 65
E: 534.159876 0003 001c 5
E: 534.159876 0003 0030 325
E: 534.159876 0003 0031 207
E: 534.159876 0003 0000 1560
E: 534.159876 0003 0001 970
E: 534.159876 0003 0018 61
E: 534.159876 0000 0000 0
E: 534.169387 0003 002f 0
E: 534.169387 0003 0035 1556
E: 534.169387 0003 0036 1140
E: 534.169387 0003 003a 59
E: 534.169387 0003 001c 3
E: 534.169387 0003 002f 1
E: 534.169387 0003 0035 996
E: 534.169387 0003 0036 987
E: 534.169387 0003 003a 63
E: 534.169387 0003 001c 5
E: 534.169387 0003 0000 1556
E: 534.169387 0003 0001 1140
E: 534.169387 0003 0018 59
E: 534.169387 0000 0000 0
E: 534.179502 0003 002f 0
E: 534.179502 0003 0035 1550
E: 534.179502 0003 0036 1302
E: 534.179502 0003 001c 4
E: 534.179502 0003 0030 260
E: 534.179502 0003 0031 207
E: 534.179502 0003 002f 1
E: 534.179502 0003 0035 988
E: 534.179502 0003 0036 1163
E: 534.179502 0003 0030 260
E: 534.179502 0003 0000 1550
E: 534.179502 0003 0001 1302
E: 534.179502 0000 0000 0
E: 534.189063 0003 002f 0
E: 534.189063 0003 0035 1541
E: 534.189063 0003 0036 1454
E: 534.189063 0003 003a 58
E: 534.189063 0003 0031 138
E: 534.189063 0003 002f 1
E: 534.189063 0003 0036 1327
E: 534.189063 0003 003a 61
E: 534.189063 0003 0000 1541
E: 534.189063 0003 0001 1454
E: 534.189063 0003 0018 58
E: 534.189063 0000 0000 0
E: 534.199122 0003 001c 1
E: 534.199122 0003 002f 0
E: 534.199122 0003 0030 69
E: 534.199122 0003 0031 65
E: 534.199122 0003 002f 1
E: 534.199122 0003 0030 69
E: 534.199122 0003 0031 65
E: 534.199122 0000 0000 0
E: 534.208848 0003 002f 0
E: 534.208848 0003 0039 -1
E: 534.208848 0003 002f 1
E: 534.208848 0003 0039 -1
E: 534.208848 0001 014a 0
E: 534.208848 0001 014d 0
E: 534.208848 0003 0018 0
E: 534.208848 0000 0000 0
E: 534.209348 0003 002f 0
E: 534.209348 0003 0039 -1
E: 534.209348 0003 002f 1
E: 534.209348 0003 0039 -1
E: 534.209348 0003 002f 2
E: 534.209348 0003 0039 -1
E: 534.209348 0003 002f 3
E: 534.209348 0003 0039 -1
E: 534.209348 0003 002f 4
E: 534.209348 0003 0039 -1
